rtl/program.out
module load vcs/2023.12-SP2-1 || true
vcs -sverilog -full64 -timescale=1ns/1ps +incdir+verilog +incdir+test -Mdir=build/csrc -o build/simv_cpu -debug_access+all +v2k verilog/cpu.sv verilog/regfile.sv verilog/adder.sv verilog/mult.sv verilog/ntt_full.sv verilog/ntt_butterfly.sv verilog/modSwitch_qBBa_to_BBa.sv verilog/fastBConv.sv verilog/fastBConvEx_BBa_to_q.sv test/cpu_test.sv
                         Chronologic VCS (TM)
        Version X-2025.06-1_Full64 -- Sun Dec  7 18:38:56 2025

                    Copyright (c) 1991 - 2025 Synopsys, Inc.
   This software and the associated documentation are proprietary to Synopsys,
 Inc. This software may only be used in accordance with the terms and conditions
 of a written license agreement with Synopsys, Inc. All other use, reproduction,
   or distribution of this software is strictly prohibited.  Licensed Products
     communicate with Synopsys servers for the purpose of providing software
    updates, detecting software piracy and verifying that customers are using
    Licensed Products in conformity with the applicable License Key for such
  Licensed Products. Synopsys will use information gathered in connection with
    this process to deliver software updates and pursue software pirates and
                                   infringers.

 Inclusivity & Diversity - Visit SolvNetPlus to read the "Synopsys Statement on
            Inclusivity and Diversity" (Refer to article 000036315 at
                        https://solvnetplus.synopsys.com)

Parsing design file 'verilog/cpu.sv'
Parsing included file 'verilog/types.svh'.
Back to file 'verilog/cpu.sv'.
Parsing design file 'verilog/regfile.sv'
Parsing included file 'verilog/types.svh'.
Back to file 'verilog/regfile.sv'.
Parsing design file 'verilog/adder.sv'
Parsing included file 'verilog/types.svh'.
Back to file 'verilog/adder.sv'.
Parsing design file 'verilog/mult.sv'
Parsing included file 'verilog/types.svh'.
Back to file 'verilog/mult.sv'.
Parsing design file 'verilog/ntt_full.sv'
Parsing design file 'verilog/ntt_butterfly.sv'
Parsing design file 'verilog/modSwitch_qBBa_to_BBa.sv'
Parsing included file 'verilog/types.svh'.
Back to file 'verilog/modSwitch_qBBa_to_BBa.sv'.
Parsing design file 'verilog/fastBConv.sv'
Parsing included file 'verilog/types.svh'.
Back to file 'verilog/fastBConv.sv'.
Parsing design file 'verilog/fastBConvEx_BBa_to_q.sv'
Parsing included file 'verilog/types.svh'.
Back to file 'verilog/fastBConvEx_BBa_to_q.sv'.
Parsing design file 'test/cpu_test.sv'
Parsing included file 'verilog/types.svh'.
Back to file 'test/cpu_test.sv'.
Parsing included file 'test/ct_test_inputs.svh'.
Parsing included file 'verilog/types.svh'.
Back to file 'test/ct_test_inputs.svh'.
Back to file 'test/cpu_test.sv'.
Top Level Modules:
       tb_cpu
TimeScale is 1 ns / 1 ps

Warning-[TFIPC] Too few instance port connections
verilog/modSwitch_qBBa_to_BBa.sv, 44
modSwitch_qBBa_to_BBa, "fastBConv #(.IN_BASIS_LEN(11), .OUT_BASIS_LEN(11), .IN_BASIS($unit::q_BASIS), .OUT_BASIS($unit::BBa_BASIS), .ZiLUT($unit::z_MOD_q), .YMODB($unit::y_q_TO_BBa)) conv_inst( .clk (clk),  .reset (reset),  .in_valid (in_valid),  .input_RNSpoly (to_be_dropped_RNSpoly),  .out_valid (fastBConv_outvalid),  .output_RNSpoly (xhatf_fastBconv_output_RNSpoly));"
  The above instance has fewer port connections than the module definition.
  Please use '+lint=TFIPC-L' to print out detailed information of unconnected 
  ports.


Warning-[TFIPC] Too few instance port connections
verilog/fastBConvEx_BBa_to_q.sv, 48
fastBConvEx_BBa_to_q, "fastBConv #(.IN_BASIS_LEN(10), .OUT_BASIS_LEN(1), .IN_BASIS($unit::B_BASIS), .OUT_BASIS($unit::Ba_BASIS), .ZiLUT($unit::z_MOD_B), .YMODB($unit::y_B_TO_Ba)) conv_inst_BtoBa( .clk (clk),  .reset (reset),  .in_valid (in_valid),  .input_RNSpoly (xB_RNSpoly),  .out_valid (fastBConv_BtoBa_outvalid),  .output_RNSpoly (xB_in_Ba));"
  The above instance has fewer port connections than the module definition.
  Please use '+lint=TFIPC-L' to print out detailed information of unconnected 
  ports.


Warning-[TFIPC] Too few instance port connections
verilog/fastBConvEx_BBa_to_q.sv, 75
fastBConvEx_BBa_to_q, "fastBConv #(.IN_BASIS_LEN(10), .OUT_BASIS_LEN(11), .IN_BASIS($unit::B_BASIS), .OUT_BASIS($unit::q_BASIS), .ZiLUT($unit::z_MOD_B), .YMODB($unit::y_B_TO_q)) conv_inst_Btoq( .clk (clk),  .reset (reset),  .in_valid (in_valid),  .input_RNSpoly (xB_RNSpoly),  .out_valid (fastBConv_Btoq_outvalid),  .output_RNSpoly (xB_in_q));"
  The above instance has fewer port connections than the module definition.
  Please use '+lint=TFIPC-L' to print out detailed information of unconnected 
  ports.


Warning-[TFIPC] Too few instance port connections
verilog/cpu.sv, 474
cpu, "fastBConv #(.IN_BASIS_LEN(11), .OUT_BASIS_LEN(22), .IN_BASIS($unit::q_BASIS), .OUT_BASIS($unit::qBBa_BASIS), .ZiLUT($unit::z_MOD_q), .YMODB($unit::y_q_TO_qBBa)) fastBConv_2( .clk (clk),  .reset (reset),  .in_valid ((fastBconv_in_valid & (~doing_fastBconv))),  .input_RNSpoly (op_c_q),  .out_valid (modraise_out_2_valid),  .output_RNSpoly (fastBconv_out_2));"
  The above instance has fewer port connections than the module definition.
  Please use '+lint=TFIPC-L' to print out detailed information of unconnected 
  ports.

Starting vcs inline pass...
9 modules and 0 UDP read.
recompiling module regfile
recompiling module adder
recompiling module mult
recompiling module ntt_block_radix2_pipelined
recompiling module modSwitch_qBBa_to_BBa
recompiling module fastBConvSingle
recompiling module fastBConv
recompiling module fastBConvEx_BBa_to_q
recompiling module tb_cpu
All of 9 modules done
make[1]: Entering directory '/home/aarushk/EECS598/598_FHE_Research_Project/rtl/build/csrc'
make[1]: Leaving directory '/home/aarushk/EECS598/598_FHE_Research_Project/rtl/build/csrc'
make[1]: Entering directory '/home/aarushk/EECS598/598_FHE_Research_Project/rtl/build/csrc'
rm -f _cuarc*.so _csrc*.so pre_vcsobj_*.so share_vcsobj_*.so
if [ -x /home/aarushk/EECS598/598_FHE_Research_Project/rtl/build/simv_cpu ]; then chmod a-x /home/aarushk/EECS598/598_FHE_Research_Project/rtl/build/simv_cpu; fi
g++  -o /home/aarushk/EECS598/598_FHE_Research_Project/rtl/build/simv_cpu      -rdynamic  -Wl,-rpath='$ORIGIN'/simv_cpu.daidir -Wl,-rpath=./simv_cpu.daidir -Wl,-rpath=/usr/caen/vcs-2025.06-1/linux64/lib -L/usr/caen/vcs-2025.06-1/linux64/lib  -Wl,-rpath-link=./  /usr/lib64/libnuma.so.1   objs/amcQw_d.o  _3649303_archive_1.so  SIM_l.o      rmapats_mop.o rmapats.o rmar.o rmar_nd.o  rmar_llvm_0_1.o rmar_llvm_0_0.o            -lvirsim -lerrorinf -lsnpsmalloc -lvfs      -lvcsnew -ldistsimclient -lsimprofile -luclinative /usr/caen/vcs-2025.06-1/linux64/lib/vcs_tls.o   -Wl,-whole-archive  -lvcsucli    -Wl,-no-whole-archive       _vcs_pli_stub_.o   /usr/caen/vcs-2025.06-1/linux64/lib/vcs_save_restore_new.o /usr/caen/verdi-2025.06-1/share/PLI/VCS/LINUX64/pli.a -ldl  -lc -lm -lpthread -ldl 
/home/aarushk/EECS598/598_FHE_Research_Project/rtl/build/simv_cpu up to date
make[1]: Leaving directory '/home/aarushk/EECS598/598_FHE_Research_Project/rtl/build/csrc'
CPU time: 47.302 seconds to compile + 2.260 seconds to elab + .908 seconds to link
build/simv_cpu
Info: [VCS_SAVE_RESTORE_INFO] ASLR (Address Space Layout Randomization) is detected on the machine. To enable $save functionality, ASLR will be switched off and simv re-executed.
Please use '-no_save' simv switch to avoid re-execution or '-suppress=ASLR_DETECTED_INFO' to suppress this message.
Chronologic VCS simulator copyright 1991-2025
Contains Synopsys proprietary information.
Compiler version X-2025.06-1_Full64; Runtime version X-2025.06-1_Full64;  Dec  7 18:40 2025
Stage:  x, Operation: 0, Done: x
Op_a:          0, Op_b:          0, Op_c:          0, Op_d:          0
Fu_1:          0, Fu_2:          0
Dest0_poly:          x, Dest1_poly:          x
Wb_0_idx:  x, Wb_1_idx:  x
Stage:  0, Operation: 0, Done: 0
Op_a:          0, Op_b:          0, Op_c:          0, Op_d:          0
Fu_1:          0, Fu_2:          0
Dest0_poly:          0, Dest1_poly:          0
Wb_0_idx:  x, Wb_1_idx:  x
Stage:  1, Operation: 0, Done: 0
Op_a:          0, Op_b:          0, Op_c:          0, Op_d:          0
Fu_1:          0, Fu_2:          0
Dest0_poly:          0, Dest1_poly:          0
Wb_0_idx:  0, Wb_1_idx:  0
==== Starting CPU Testbench ====

Register file preloaded:
  REG[0] (CT1.A): sample value = 82
  REG[1] (CT1.B): sample value = 215
  REG[2] (CT2.A): sample value = 36
  REG[3] (CT2.B): sample value = 182
  REG[4] (PT):    sample value = 182

==== TEST 1: CT-CT ADD ====
Stage:  1, Operation: 0, Done: 0
Op_a:          0, Op_b:          0, Op_c:          0, Op_d:          0
Fu_1:          0, Fu_2:          0
Dest0_poly:          0, Dest1_poly:          0
Wb_0_idx:  0, Wb_1_idx:  0
Stage:  1, Operation: 1, Done: 0
Op_a:          0, Op_b:          0, Op_c:          0, Op_d:          0
Fu_1:          0, Fu_2:          0
Dest0_poly:          0, Dest1_poly:          0
Wb_0_idx:  0, Wb_1_idx:  0
Stage:  1, Operation: 0, Done: 0
Op_a:         82, Op_b:         36, Op_c:        215, Op_d:        182
Fu_1:        118, Fu_2:        140
Dest0_poly:          0, Dest1_poly:          0
Wb_0_idx:  0, Wb_1_idx:  0
Stage:  1, Operation: 0, Done: 1
Op_a:          0, Op_b:          0, Op_c:          0, Op_d:          0
Fu_1:          0, Fu_2:          0
Dest0_poly:        118, Dest1_poly:        140
Wb_0_idx:  5, Wb_1_idx:  6
[PASS] CT-CT ADD test passed!

  Result A[0][0] = 118 (expected 118)
  Result B[0][0] = 140 (expected 140)

  ► Register file dumped to regstateT1.out
==== TEST 2: CT-PT ADD ====
Stage:  1, Operation: 0, Done: 0
Op_a:          0, Op_b:          0, Op_c:          0, Op_d:          0
Fu_1:          0, Fu_2:          0
Dest0_poly:          0, Dest1_poly:          0
Wb_0_idx:  5, Wb_1_idx:  6
Stage:  1, Operation: 2, Done: 0
Op_a:          0, Op_b:          0, Op_c:          0, Op_d:          0
Fu_1:          0, Fu_2:          0
Dest0_poly:          0, Dest1_poly:          0
Wb_0_idx:  5, Wb_1_idx:  6
Stage:  1, Operation: 0, Done: 0
Op_a:         82, Op_b:          0, Op_c:        215, Op_d:        182
Fu_1:         82, Fu_2:        140
Dest0_poly:          0, Dest1_poly:          0
Wb_0_idx:  5, Wb_1_idx:  6
Stage:  1, Operation: 0, Done: 1
Op_a:          0, Op_b:          0, Op_c:          0, Op_d:          0
Fu_1:          0, Fu_2:          0
Dest0_poly:         82, Dest1_poly:        140
Wb_0_idx:  7, Wb_1_idx:  8
[PASS] CT-PT ADD test passed!

  Result A[0][0] = 82 (expected 82 - passthrough)
  Result B[0][0] = 140 (expected 140)

==== TEST 3: CT-PT MUL ====
[T3] Issued CT-PT MUL: idx1_a=0 idx1_b=1 idx2_b(PT)=4 out_a=9 out_b=10
Stage:  1, Operation: 0, Done: 0
Op_a:          0, Op_b:          0, Op_c:          0, Op_d:          0
Fu_1:          0, Fu_2:          0
Dest0_poly:          0, Dest1_poly:          0
Wb_0_idx:  7, Wb_1_idx:  8
Stage:  1, Operation: 3, Done: 0
Op_a:          0, Op_b:          0, Op_c:          0, Op_d:          0
Fu_1:          0, Fu_2:          0
Dest0_poly:          0, Dest1_poly:          0
Wb_0_idx:  7, Wb_1_idx:  8
Stage:  1, Operation: 0, Done: 0
Op_a:         82, Op_b:          1, Op_c:        182, Op_d:          1
Fu_1:         82, Fu_2:        182
Dest0_poly:          0, Dest1_poly:          0
Wb_0_idx:  7, Wb_1_idx:  8
Stage:  2, Operation: 0, Done: 0
Op_a:         82, Op_b:          0, Op_c:        182, Op_d:          0
Fu_1:          0, Fu_2:          0
Dest0_poly:         82, Dest1_poly:        182
Wb_0_idx:  9, Wb_1_idx: 10
Stage:  2, Operation: 0, Done: 0
Op_a:          0, Op_b:          0, Op_c:          0, Op_d:          0
Fu_1:          0, Fu_2:          0
Dest0_poly:          0, Dest1_poly:          0
Wb_0_idx:  9, Wb_1_idx: 10
Stage:  2, Operation: 0, Done: 0
Op_a:          0, Op_b:          0, Op_c:          0, Op_d:          0
Fu_1:          0, Fu_2:          0
Dest0_poly:          0, Dest1_poly:          0
Wb_0_idx:  9, Wb_1_idx: 10
Stage:  2, Operation: 0, Done: 0
Op_a:          0, Op_b:          0, Op_c:          0, Op_d:          0
Fu_1:          0, Fu_2:          0
Dest0_poly:          0, Dest1_poly:          0
Wb_0_idx:  9, Wb_1_idx: 10
Stage:  2, Operation: 0, Done: 0
Op_a:          0, Op_b:          0, Op_c:          0, Op_d:          0
Fu_1:        188, Fu_2:        164
Dest0_poly:          0, Dest1_poly:          0
Wb_0_idx:  9, Wb_1_idx: 10
Stage:  2, Operation: 0, Done: 0
Op_a:        188, Op_b:          0, Op_c:        164, Op_d:          0
Fu_1:          0, Fu_2:          0
Dest0_poly:        188, Dest1_poly:        164
Wb_0_idx:  9, Wb_1_idx: 10
Stage:  2, Operation: 0, Done: 0
Op_a:          0, Op_b:          0, Op_c:          0, Op_d:          0
Fu_1:          0, Fu_2:          0
Dest0_poly:          0, Dest1_poly:          0
Wb_0_idx:  9, Wb_1_idx: 10
Stage:  2, Operation: 0, Done: 0
Op_a:          0, Op_b:          0, Op_c:          0, Op_d:          0
Fu_1:          0, Fu_2:          0
Dest0_poly:          0, Dest1_poly:          0
Wb_0_idx:  9, Wb_1_idx: 10
Stage:  2, Operation: 0, Done: 0
Op_a:          0, Op_b:          0, Op_c:          0, Op_d:          0
Fu_1:        188, Fu_2:        164
Dest0_poly:          0, Dest1_poly:          0
Wb_0_idx:  9, Wb_1_idx: 10
Stage:  2, Operation: 0, Done: 0
Op_a:        188, Op_b:          0, Op_c:        164, Op_d:          0
Fu_1:          0, Fu_2:          0
Dest0_poly:        188, Dest1_poly:        164
Wb_0_idx:  9, Wb_1_idx: 10
Stage:  2, Operation: 0, Done: 0
Op_a:          0, Op_b:          0, Op_c:          0, Op_d:          0
Fu_1:          0, Fu_2:          0
Dest0_poly:          0, Dest1_poly:          0
Wb_0_idx:  9, Wb_1_idx: 10
Stage:  2, Operation: 0, Done: 0
Op_a:          0, Op_b:          0, Op_c:          0, Op_d:          0
Fu_1:          0, Fu_2:          0
Dest0_poly:          0, Dest1_poly:          0
Wb_0_idx:  9, Wb_1_idx: 10
Stage:  2, Operation: 0, Done: 0
Op_a:          0, Op_b:          0, Op_c:          0, Op_d:          0
Fu_1:        188, Fu_2:        147
Dest0_poly:          0, Dest1_poly:          0
Wb_0_idx:  9, Wb_1_idx: 10
Stage:  2, Operation: 0, Done: 0
Op_a:        188, Op_b:          0, Op_c:        147, Op_d:          0
Fu_1:        109, Fu_2:        230
Dest0_poly:        188, Dest1_poly:        147
Wb_0_idx:  9, Wb_1_idx: 10
Stage:  3, Operation: 0, Done: 0
Op_a:        109, Op_b:        230, Op_c:          0, Op_d:          0
Fu_1:        141, Fu_2:          0
Dest0_poly:        109, Dest1_poly:        230
Wb_0_idx:  9, Wb_1_idx: 10
Stage:  4, Operation: 0, Done: 0
Op_a:        141, Op_b:          0, Op_c:          0, Op_d:          0
Fu_1:          0, Fu_2:          0
Dest0_poly:        141, Dest1_poly:          0
Wb_0_idx:  9, Wb_1_idx: 10
Stage:  4, Operation: 0, Done: 0
Op_a:          0, Op_b:          0, Op_c:          0, Op_d:          0
Fu_1:          0, Fu_2:          0
Dest0_poly:          0, Dest1_poly:          0
Wb_0_idx:  9, Wb_1_idx: 10
Stage:  4, Operation: 0, Done: 0
Op_a:          0, Op_b:          0, Op_c:          0, Op_d:          0
Fu_1:          0, Fu_2:          0
Dest0_poly:          0, Dest1_poly:          0
Wb_0_idx:  9, Wb_1_idx: 10
Stage:  4, Operation: 0, Done: 0
Op_a:          0, Op_b:          0, Op_c:          0, Op_d:          0
Fu_1:        108, Fu_2:          0
Dest0_poly:          0, Dest1_poly:          0
Wb_0_idx:  9, Wb_1_idx: 10
Stage:  4, Operation: 0, Done: 0
Op_a:        108, Op_b:          0, Op_c:          0, Op_d:          0
Fu_1:          0, Fu_2:          0
Dest0_poly:        108, Dest1_poly:          0
Wb_0_idx:  9, Wb_1_idx: 10
Stage:  4, Operation: 0, Done: 0
Op_a:          0, Op_b:          0, Op_c:          0, Op_d:          0
Fu_1:          0, Fu_2:          0
Dest0_poly:          0, Dest1_poly:          0
Wb_0_idx:  9, Wb_1_idx: 10
Stage:  4, Operation: 0, Done: 0
Op_a:          0, Op_b:          0, Op_c:          0, Op_d:          0
Fu_1:          0, Fu_2:          0
Dest0_poly:          0, Dest1_poly:          0
Wb_0_idx:  9, Wb_1_idx: 10
Stage:  4, Operation: 0, Done: 0
Op_a:          0, Op_b:          0, Op_c:          0, Op_d:          0
Fu_1:        108, Fu_2:          0
Dest0_poly:          0, Dest1_poly:          0
Wb_0_idx:  9, Wb_1_idx: 10
Stage:  4, Operation: 0, Done: 0
Op_a:        108, Op_b:          0, Op_c:          0, Op_d:          0
Fu_1:          0, Fu_2:          0
Dest0_poly:        108, Dest1_poly:          0
Wb_0_idx:  9, Wb_1_idx: 10
Stage:  4, Operation: 0, Done: 0
Op_a:          0, Op_b:          0, Op_c:          0, Op_d:          0
Fu_1:          0, Fu_2:          0
Dest0_poly:          0, Dest1_poly:          0
Wb_0_idx:  9, Wb_1_idx: 10
Stage:  4, Operation: 0, Done: 0
Op_a:          0, Op_b:          0, Op_c:          0, Op_d:          0
Fu_1:          0, Fu_2:          0
Dest0_poly:          0, Dest1_poly:          0
Wb_0_idx:  9, Wb_1_idx: 10
Stage:  4, Operation: 0, Done: 0
Op_a:          0, Op_b:          0, Op_c:          0, Op_d:          0
Fu_1:        108, Fu_2:          0
Dest0_poly:          0, Dest1_poly:          0
Wb_0_idx:  9, Wb_1_idx: 10
Stage:  4, Operation: 0, Done: 0
Op_a:        108, Op_b:          0, Op_c:          0, Op_d:          0
Fu_1:        108, Fu_2:          0
Dest0_poly:        108, Dest1_poly:          0
Wb_0_idx:  9, Wb_1_idx: 10
Stage:  4, Operation: 0, Done: 0
Op_a:        108, Op_b:          0, Op_c:          0, Op_d:          0
Fu_1:        139, Fu_2:          0
Dest0_poly:        108, Dest1_poly:          0
Wb_0_idx:  9, Wb_1_idx: 10
Stage:  5, Operation: 0, Done: 0
Op_a:        139, Op_b:        253, Op_c:          0, Op_d:          0
Fu_1:        215, Fu_2:          0
Dest0_poly:        139, Dest1_poly:          0
Wb_0_idx:  9, Wb_1_idx: 10
Stage:  6, Operation: 0, Done: 0
Op_a:        215, Op_b:          1, Op_c:        182, Op_d:          1
Fu_1:        215, Fu_2:        182
Dest0_poly:        215, Dest1_poly:          0
Wb_0_idx:  9, Wb_1_idx: 10
Stage:  7, Operation: 0, Done: 0
Op_a:        215, Op_b:          0, Op_c:        182, Op_d:          0
Fu_1:          0, Fu_2:          0
Dest0_poly:        215, Dest1_poly:        182
Wb_0_idx:  9, Wb_1_idx: 10
Stage:  7, Operation: 0, Done: 0
Op_a:          0, Op_b:          0, Op_c:          0, Op_d:          0
Fu_1:        210, Fu_2:          0
Dest0_poly:          0, Dest1_poly:          0
Wb_0_idx:  9, Wb_1_idx: 10
Stage:  7, Operation: 0, Done: 0
Op_a:        210, Op_b:          0, Op_c:          0, Op_d:          0
Fu_1:          0, Fu_2:          0
Dest0_poly:        210, Dest1_poly:          0
Wb_0_idx:  9, Wb_1_idx: 10
Stage:  7, Operation: 0, Done: 0
Op_a:          0, Op_b:          0, Op_c:          0, Op_d:          0
Fu_1:          0, Fu_2:          0
Dest0_poly:          0, Dest1_poly:          0
Wb_0_idx:  9, Wb_1_idx: 10
Stage:  7, Operation: 0, Done: 0
Op_a:          0, Op_b:          0, Op_c:          0, Op_d:          0
Fu_1:          0, Fu_2:          0
Dest0_poly:          0, Dest1_poly:          0
Wb_0_idx:  9, Wb_1_idx: 10
Stage:  7, Operation: 0, Done: 0
Op_a:          0, Op_b:          0, Op_c:          0, Op_d:          0
Fu_1:        210, Fu_2:          0
Dest0_poly:          0, Dest1_poly:          0
Wb_0_idx:  9, Wb_1_idx: 10
Stage:  7, Operation: 0, Done: 0
Op_a:        210, Op_b:          0, Op_c:          0, Op_d:          0
Fu_1:          0, Fu_2:          0
Dest0_poly:        210, Dest1_poly:          0
Wb_0_idx:  9, Wb_1_idx: 10
Stage:  7, Operation: 0, Done: 0
Op_a:          0, Op_b:          0, Op_c:          0, Op_d:          0
Fu_1:          0, Fu_2:          0
Dest0_poly:          0, Dest1_poly:          0
Wb_0_idx:  9, Wb_1_idx: 10
Stage:  7, Operation: 0, Done: 0
Op_a:          0, Op_b:          0, Op_c:          0, Op_d:          0
Fu_1:          0, Fu_2:          0
Dest0_poly:          0, Dest1_poly:          0
Wb_0_idx:  9, Wb_1_idx: 10
Stage:  7, Operation: 0, Done: 0
Op_a:          0, Op_b:          0, Op_c:          0, Op_d:          0
Fu_1:        210, Fu_2:          0
Dest0_poly:          0, Dest1_poly:          0
Wb_0_idx:  9, Wb_1_idx: 10
Stage:  7, Operation: 0, Done: 0
Op_a:        210, Op_b:          0, Op_c:          0, Op_d:          0
Fu_1:         37, Fu_2:          0
Dest0_poly:        210, Dest1_poly:          0
Wb_0_idx:  9, Wb_1_idx: 10
Stage:  7, Operation: 0, Done: 0
Op_a:         37, Op_b:          0, Op_c:          0, Op_d:          0
Fu_1:         29, Fu_2:          0
Dest0_poly:         37, Dest1_poly:          0
Wb_0_idx:  9, Wb_1_idx: 10
Stage:  7, Operation: 0, Done: 0
Op_a:         29, Op_b:          0, Op_c:          0, Op_d:          0
Fu_1:        164, Fu_2:        147
Dest0_poly:         29, Dest1_poly:          0
Wb_0_idx:  9, Wb_1_idx: 10
Stage:  7, Operation: 0, Done: 0
Op_a:        164, Op_b:          0, Op_c:        147, Op_d:          0
Fu_1:         80, Fu_2:        230
Dest0_poly:        164, Dest1_poly:        147
Wb_0_idx:  9, Wb_1_idx: 10
Stage:  8, Operation: 0, Done: 0
Op_a:         80, Op_b:        230, Op_c:          0, Op_d:          0
Fu_1:        153, Fu_2:          0
Dest0_poly:         80, Dest1_poly:        230
Wb_0_idx:  9, Wb_1_idx: 10
Stage:  9, Operation: 0, Done: 0
Op_a:        153, Op_b:          0, Op_c:          0, Op_d:          0
Fu_1:        230, Fu_2:          0
Dest0_poly:        153, Dest1_poly:          0
Wb_0_idx:  9, Wb_1_idx: 10
Stage:  9, Operation: 0, Done: 0
Op_a:        230, Op_b:          0, Op_c:          0, Op_d:          0
Fu_1:          0, Fu_2:          0
Dest0_poly:        230, Dest1_poly:          0
Wb_0_idx:  9, Wb_1_idx: 10
Stage:  9, Operation: 0, Done: 0
Op_a:          0, Op_b:          0, Op_c:          0, Op_d:          0
Fu_1:          0, Fu_2:          0
Dest0_poly:          0, Dest1_poly:          0
Wb_0_idx:  9, Wb_1_idx: 10
Stage:  9, Operation: 0, Done: 0
Op_a:          0, Op_b:          0, Op_c:          0, Op_d:          0
Fu_1:          0, Fu_2:          0
Dest0_poly:          0, Dest1_poly:          0
Wb_0_idx:  9, Wb_1_idx: 10
Stage:  9, Operation: 0, Done: 0
Op_a:          0, Op_b:          0, Op_c:          0, Op_d:          0
Fu_1:        230, Fu_2:          0
Dest0_poly:          0, Dest1_poly:          0
Wb_0_idx:  9, Wb_1_idx: 10
Stage:  9, Operation: 0, Done: 0
Op_a:        230, Op_b:          0, Op_c:          0, Op_d:          0
Fu_1:          0, Fu_2:          0
Dest0_poly:        230, Dest1_poly:          0
Wb_0_idx:  9, Wb_1_idx: 10
Stage:  9, Operation: 0, Done: 0
Op_a:          0, Op_b:          0, Op_c:          0, Op_d:          0
Fu_1:          0, Fu_2:          0
Dest0_poly:          0, Dest1_poly:          0
Wb_0_idx:  9, Wb_1_idx: 10
Stage:  9, Operation: 0, Done: 0
Op_a:          0, Op_b:          0, Op_c:          0, Op_d:          0
Fu_1:          0, Fu_2:          0
Dest0_poly:          0, Dest1_poly:          0
Wb_0_idx:  9, Wb_1_idx: 10
Stage:  9, Operation: 0, Done: 0
Op_a:          0, Op_b:          0, Op_c:          0, Op_d:          0
Fu_1:        230, Fu_2:          0
Dest0_poly:          0, Dest1_poly:          0
Wb_0_idx:  9, Wb_1_idx: 10
Stage:  9, Operation: 0, Done: 0
Op_a:        230, Op_b:          0, Op_c:          0, Op_d:          0
Fu_1:        230, Fu_2:          0
Dest0_poly:        230, Dest1_poly:          0
Wb_0_idx:  9, Wb_1_idx: 10
Stage:  9, Operation: 0, Done: 0
Op_a:        230, Op_b:          0, Op_c:          0, Op_d:          0
Fu_1:        158, Fu_2:          0
Dest0_poly:        230, Dest1_poly:          0
Wb_0_idx:  9, Wb_1_idx: 10
Stage:  9, Operation: 0, Done: 0
Op_a:        158, Op_b:          0, Op_c:          0, Op_d:          0
Fu_1:        139, Fu_2:          0
Dest0_poly:        158, Dest1_poly:          0
Wb_0_idx:  9, Wb_1_idx: 10
Stage:  9, Operation: 0, Done: 0
Op_a:        139, Op_b:          0, Op_c:          0, Op_d:          0
Fu_1:        139, Fu_2:          0
Dest0_poly:        139, Dest1_poly:          0
Wb_0_idx:  9, Wb_1_idx: 10
Stage:  9, Operation: 0, Done: 0
Op_a:        139, Op_b:          0, Op_c:          0, Op_d:          0
Fu_1:        151, Fu_2:          0
Dest0_poly:        139, Dest1_poly:          0
Wb_0_idx:  9, Wb_1_idx: 10
Stage: 10, Operation: 0, Done: 0
Op_a:        151, Op_b:        253, Op_c:          0, Op_d:          0
Fu_1:          0, Fu_2:        167
Dest0_poly:        151, Dest1_poly:          0
Wb_0_idx:  9, Wb_1_idx: 10
Stage:  1, Operation: 0, Done: 1
Op_a:          0, Op_b:          0, Op_c:          0, Op_d:          0
Fu_1:          0, Fu_2:          0
Dest0_poly:          0, Dest1_poly:        167
Wb_0_idx:  9, Wb_1_idx: 10
[FAIL] CT-PT MUL (A) mismatch at slot=0, prime=0. Act: 215, Exp: 18
[FAIL] CT-PT MUL (A) mismatch at slot=0, prime=1. Act: 1179129441, Exp: 320336210
[FAIL] CT-PT MUL (A) mismatch at slot=0, prime=2. Act: 743544200, Exp: 1622170310
[FAIL] CT-PT MUL (A) mismatch at slot=0, prime=3. Act: 314297355, Exp: 1885761141
[FAIL] CT-PT MUL (A) mismatch at slot=0, prime=4. Act: 1401666907, Exp: 1133462303
[FAIL] CT-PT MUL (A) had 704 total mismatches (only first 5 shown)
[FAIL] CT-PT MUL (B) mismatch at slot=0, prime=0. Act: 167, Exp: 66
[FAIL] CT-PT MUL (B) mismatch at slot=0, prime=1. Act: 890168247, Exp: 1546293842
[FAIL] CT-PT MUL (B) mismatch at slot=0, prime=2. Act: 2066751770, Exp: 535690443
[FAIL] CT-PT MUL (B) mismatch at slot=0, prime=3. Act: 1273764887, Exp: 370020045
[FAIL] CT-PT MUL (B) mismatch at slot=0, prime=4. Act: 1800818452, Exp: 1466689214
[FAIL] CT-PT MUL (B) had 703 total mismatches (only first 5 shown)
[FAIL] CT-PT MUL test failed!

==== TEST 4: CT-CT MUL ====
[T4] Issued CT-CT MUL: idx1_a=0 idx1_b=1 idx2_a=2 idx2_b=3 out_a=9 out_b=10
Stage:  1, Operation: 0, Done: 0
Op_a:          0, Op_b:          0, Op_c:          0, Op_d:          0
Fu_1:          0, Fu_2:          0
Dest0_poly:          0, Dest1_poly:          0
Wb_0_idx:  9, Wb_1_idx: 10
Stage:  1, Operation: 4, Done: 0
Op_a:          0, Op_b:          0, Op_c:          0, Op_d:          0
Fu_1:          0, Fu_2:          0
Dest0_poly:          0, Dest1_poly:          0
Wb_0_idx:  9, Wb_1_idx: 10
Stage:  1, Operation: 0, Done: 0
Op_a:         82, Op_b:          0, Op_c:        215, Op_d:          0
Fu_1:          x, Fu_2:          x
Dest0_poly:          0, Dest1_poly:          0
Wb_0_idx:  9, Wb_1_idx: 10
Stage:  1, Operation: 0, Done: 0
Op_a:         82, Op_b:          0, Op_c:        215, Op_d:          0
Fu_1:          0, Fu_2:          0
Dest0_poly:          x, Dest1_poly:          x
Wb_0_idx: 11, Wb_1_idx: 12
Stage:  1, Operation: 0, Done: 0
Op_a:         82, Op_b:          0, Op_c:        215, Op_d:          0
Fu_1:         82, Fu_2:        215
Dest0_poly:          0, Dest1_poly:          0
Wb_0_idx: 11, Wb_1_idx: 12
Stage:  1, Operation: 0, Done: 0
Op_a:         82, Op_b:          0, Op_c:        215, Op_d:          0
Fu_1:         82, Fu_2:        215
Dest0_poly:         82, Dest1_poly:        215
Wb_0_idx: 11, Wb_1_idx: 12
Stage:  1, Operation: 0, Done: 0
Op_a:         82, Op_b:          0, Op_c:        215, Op_d:          0
Fu_1:         82, Fu_2:        215
Dest0_poly:         82, Dest1_poly:        215
Wb_0_idx: 11, Wb_1_idx: 12
Stage:  1, Operation: 0, Done: 0
Op_a:         82, Op_b:          0, Op_c:        215, Op_d:          0
Fu_1:         82, Fu_2:        215
Dest0_poly:         82, Dest1_poly:        215
Wb_0_idx: 11, Wb_1_idx: 12
Stage:  1, Operation: 0, Done: 0
Op_a:         82, Op_b:          0, Op_c:        215, Op_d:          0
Fu_1:         82, Fu_2:        215
Dest0_poly:         82, Dest1_poly:        215
Wb_0_idx: 11, Wb_1_idx: 12
Stage:  1, Operation: 0, Done: 0
Op_a:         82, Op_b:          0, Op_c:        215, Op_d:          0
Fu_1:         82, Fu_2:        215
Dest0_poly:         82, Dest1_poly:        215
Wb_0_idx: 11, Wb_1_idx: 12
Stage:  1, Operation: 0, Done: 0
